Physical Circuit Analysis/amped_ripple.csv

Model,MSO4034
Firmware Version,2.48

Point Format,Y
Horizontal Units,S
Horizontal Scale,8e-06
Sample Interval,8e-10
Record Length,100000
Gating,0.0% to 100.0%
Probe Attenuation,1
Vertical Units,V
Vertical Offset,0
Vertical Scale,0.5
Label,
TIME,REF1
-4.00000e-05,0.55
-3.99992e-05,0.55
-3.99984e-05,0.55
-3.99976e-05,0.53
-3.99968e-05,0.55
-3.99960e-05,0.55
-3.99952e-05,0.55
-3.99944e-05,0.57
-3.99936e-05,0.59
-3.99928e-05,0.55
-3.99920e-05,0.53
-3.99912e-05,0.57
-3.99904e-05,0.55
-3.99896e-05,0.57
-3.99888e-05,0.55
-3.99880e-05,0.57
-3.99872e-05,0.55
-3.99864e-05,0.57
-3.99856e-05,0.55
-3.99848e-05,0.57
-3.99840e-05,0.55
-3.99832e-05,0.57
-3.99824e-05,0.55
-3.99816e-05,0.57
-3.99808e-05,0.55
-3.99800e-05,0.59
-3.99792e-05,0.55
-3.99784e-05,0.55
-3.99776e-05,0.55
-3.99768e-05,0.55
-3.99760e-05,0.55
-3.99752e-05,0.57
-3.99744e-05,0.57
-3.99736e-05,0.57
-3.99728e-05,0.55
-3.99720e-05,0.55
-3.99712e-05,0.53
-3.99704e-05,0.57
-3.99696e-05,0.55
-3.99688e-05,0.57
-3.99680e-05,0.57
-3.99672e-05,0.53
-3.99664e-05,0.57
-3.99656e-05,0.55
-3.99648e-05,0.55
-3.99640e-05,0.55
-3.99632e-05,0.57
-3.99624e-05,0.55
-3.99616e-05,0.55
-3.99608e-05,0.55
-3.99600e-05,0.57
-3.99592e-05,0.57
-3.99584e-05,0.57
-3.99576e-05,0.57
-3.99568e-05,0.55
-3.99560e-05,0.57
-3.99552e-05,0.55
-3.99544e-05,0.55
-3.99536e-05,0.57
-3.99528e-05,0.55
-3.99520e-05,0.57
-3.99512e-05,0.57
-3.99504e-05,0.57
-3.99496e-05,0.55
-3.99488e-05,0.59
-3.99480e-05,0.59
-3.99472e-05,0.59
-3.99464e-05,0.61
-3.99456e-05,0.57
-3.99448e-05,0.55
-3.99440e-05,0.55
-3.99432e-05,0.53
-3.99424e-05,0.55
-3.99416e-05,0.55
-3.99408e-05,0.57
-3.99400e-05,0.59
-3.99392e-05,0.55
-3.99384e-05,0.55
-3.99376e-05,0.57
-3.99368e-05,0.59
-3.99360e-05,0.55
-3.99352e-05,0.53
-3.99344e-05,0.55
-3.99336e-05,0.61
-3.99328e-05,0.55
-3.99320e-05,0.55
-3.99312e-05,0.57
-3.99304e-05,0.55
-3.99296e-05,0.57
-3.99288e-05,0.57
-3.99280e-05,0.57
-3.99272e-05,0.53
-3.99264e-05,0.57
-3.99256e-05,0.55
-3.99248e-05,0.57
-3.99240e-05,0.55
-3.99232e-05,0.55
-3.99224e-05,0.57
-3.99216e-05,0.57
-3.99208e-05,0.57
-3.99200e-05,0.59
-3.99192e-05,0.57
-3.99184e-05,0.57
-3.99176e-05,0.57
-3.99168e-05,0.57
-3.99160e-05,0.57
-3.99152e-05,0.57
-3.99144e-05,0.59
-3.99136e-05,0.57
-3.99128e-05,0.57
-3.99120e-05,0.59
-3.99112e-05,0.59
-3.99104e-05,0.59
-3.99096e-05,0.57
-3.99088e-05,0.55
-3.99080e-05,0.55
-3.99072e-05,0.61
-3.99064e-05,0.59
-3.99056e-05,0.57
-3.99048e-05,0.59
-3.99040e-05,0.55
-3.99032e-05,0.57
-3.99024e-05,0.57
-3.99016e-05,0.57
-3.99008e-05,0.57
-3.99000e-05,0.59
-3.98992e-05,0.57
-3.98984e-05,0.55
-3.98976e-05,0.57
-3.98968e-05,0.59
-3.98960e-05,0.59
-3.98952e-05,0.57
-3.98944e-05,0.57
-3.98936e-05,0.61
-3.98928e-05,0.59
-3.98920e-05,0.57
-3.98912e-05,0.59
-3.98904e-05,0.57
-3.98896e-05,0.57
-3.98888e-05,0.57
-3.98880e-05,0.57
-3.98872e-05,0.57
-3.98864e-05,0.59
-3.98856e-05,0.59
-3.98848e-05,0.59
-3.98840e-05,0.57
-3.98832e-05,0.59
-3.98824e-05,0.57
-3.98816e-05,0.55
-3.98808e-05,0.59
-3.98800e-05,0.59
-3.98792e-05,0.63
-3.98784e-05,0.59
-3.98776e-05,0.59
-3.98768e-05,0.57
-3.98760e-05,0.61
-3.98752e-05,0.57
-3.98744e-05,0.59
-3.98736e-05,0.57
-3.98728e-05,0.59
-3.98720e-05,0.57
-3.98712e-05,0.57
-3.98704e-05,0.59
-3.98696e-05,0.57
-3.98688e-05,0.57
-3.98680e-05,0.59
-3.98672e-05,0.59
-3.98664e-05,0.59
-3.98656e-05,0.57
-3.98648e-05,0.57
-3.98640e-05,0.59
-3.98632e-05,0.59
-3.98624e-05,0.59
-3.98616e-05,0.57
-3.98608e-05,0.61
-3.98600e-05,0.59
-3.98592e-05,0.59
-3.98584e-05,0.61
-3.98576e-05,0.59
-3.98568e-05,0.59
-3.98560e-05,0.59
-3.98552e-05,0.59
-3.98544e-05,0.59
-3.98536e-05,0.59
-3.98528e-05,0.57
-3.98520e-05,0.57
-3.98512e-05,0.61
-3.98504e-05,0.61
-3.98496e-05,0.59
-3.98488e-05,0.59
-3.98480e-05,0.59
-3.98472e-05,0.61
-3.98464e-05,0.59
-3.98456e-05,0.57
-3.98448e-05,0.61
-3.98440e-05,0.59
-3.98432e-05,0.59
-3.98424e-05,0.59
-3.98416e-05,0.57
-3.98408e-05,0.59
-3.98400e-05,0.57
-3.98392e-05,0.59
-3.98384e-05,0.59
-3.98376e-05,0.59
-3.98368e-05,0.57
-3.98360e-05,0.57
-3.98352e-05,0.59
-3.98344e-05,0.59
-3.98336e-05,0.57
-3.98328e-05,0.59
-3.98320e-05,0.59
-3.98312e-05,0.59
-3.98304e-05,0.59
-3.98296e-05,0.63
-3.98288e-05,0.61
-3.98280e-05,0.57
-3.98272e-05,0.59
-3.98264e-05,0.59
-3.98256e-05,0.59
-3.98248e-05,0.59
-3.98240e-05,0.59
-3.98232e-05,0.61
-3.98224e-05,0.59
-3.98216e-05,0.59
-3.98208e-05,0.61
-3.98200e-05,0.61
-3.98192e-05,0.59
-3.98184e-05,0.63
-3.98176e-05,0.61
-3.98168e-05,0.61
-3.98160e-05,0.59
-3.98152e-05,0.59
-3.98144e-05,0.61
-3.98136e-05,0.59
-3.98128e-05,0.61
-3.98120e-05,0.59
-3.98112e-05,0.61
-3.98104e-05,0.61
-3.98096e-05,0.59
-3.98088e-05,0.63
-3.98080e-05,0.59
-3.98072e-05,0.59
-3.98064e-05,0.59
-3.98056e-05,0.59
-3.98048e-05,0.57
-3.98040e-05,0.61
-3.98032e-05,0.61
-3.98024e-05,0.61
-3.98016e-05,0.59
-3.98008e-05,0.57
-3.98000e-05,0.61
-3.97992e-05,0.59
-3.97984e-05,0.59
-3.97976e-05,0.59
-3.97968e-05,0.61
-3.97960e-05,0.59
-3.97952e-05,0.61
-3.97944e-05,0.61
-3.97936e-05,0.57
-3.97928e-05,0.61
-3.97920e-05,0.59
-3.97912e-05,0.59
-3.97904e-05,0.59
-3.97896e-05,0.59
-3.97888e-05,0.59
-3.97880e-05,0.59
-3.97872e-05,0.61
-3.97864e-05,0.59
-3.97856e-05,0.61
-3.97848e-05,0.61
-3.97840e-05,0.61
-3.97832e-05,0.59
-3.97824e-05,0.63
-3.97816e-05,0.63
-3.97808e-05,0.61
-3.97800e-05,0.59
-3.97792e-05,0.61
-3.97784e-05,0.59
-3.97776e-05,0.61
-3.97768e-05,0.61
-3.97760e-05,0.63
-3.97752e-05,0.59
-3.97744e-05,0.61
-3.97736e-05,0.61
-3.97728e-05,0.61
-3.97720e-05,0.59
-3.97712e-05,0.61
-3.97704e-05,0.59
-3.97696e-05,0.59
-3.97688e-05,0.61
-3.97680e-05,0.61
-3.97672e-05,0.59
-3.97664e-05,0.61
-3.97656e-05,0.63
-3.97648e-05,0.61
-3.97640e-05,0.61
-3.97632e-05,0.61
-3.97624e-05,0.63
-3.97616e-05,0.59
-3.97608e-05,0.61
-3.97600e-05,0.61
-3.97592e-05,0.61
-3.97584e-05,0.61
-3.97576e-05,0.63
-3.97568e-05,0.59
-3.97560e-05,0.61
-3.97552e-05,0.59
-3.97544e-05,0.61
-3.97536e-05,0.59
-3.97528e-05,0.61
-3.97520e-05,0.59
-3.97512e-05,0.63
-3.97504e-05,0.59
-3.97496e-05,0.63
-3.97488e-05,0.63
-3.97480e-05,0.59
-3.97472e-05,0.61
-3.97464e-05,0.61
-3.97456e-05,0.61
-3.97448e-05,0.61
-3.97440e-05,0.59
-3.97432e-05,0.63
-3.97424e-05,0.59
-3.97416e-05,0.61
-3.97408e-05,0.61
-3.97400e-05,0.61
-3.97392e-05,0.61
-3.97384e-05,0.63
-3.97376e-05,0.57
-3.97368e-05,0.61
-3.97360e-05,0.63
-3.97352e-05,0.63
-3.97344e-05,0.61
-3.97336e-05,0.63
-3.97328e-05,0.61
-3.97320e-05,0.59
-3.97312e-05,0.59
-3.97304e-05,0.61
-3.97296e-05,0.61
-3.97288e-05,0.61
-3.97280e-05,0.59
-3.97272e-05,0.59
-3.97264e-05,0.59
-3.97256e-05,0.63
-3.97248e-05,0.63
-3.97240e-05,0.61
-3.97232e-05,0.63
-3.97224e-05,0.61
-3.97216e-05,0.59
-3.97208e-05,0.63
-3.97200e-05,0.63
-3.97192e-05,0.61
-3.97184e-05,0.61
-3.97176e-05,0.63
-3.97168e-05,0.61
-3.97160e-05,0.61
-3.97152e-05,0.63
-3.97144e-05,0.61
-3.97136e-05,0.65
-3.97128e-05,0.63
-3.97120e-05,0.63
-3.97112e-05,0.63
-3.97104e-05,0.63
-3.97096e-05,0.63
-3.97088e-05,0.63
-3.97080e-05,0.59
-3.97072e-05,0.63
-3.97064e-05,0.59
-3.97056e-05,0.63
-3.97048e-05,0.63
-3.97040e-05,0.63
-3.97032e-05,0.63
-3.97024e-05,0.63
-3.97016e-05,0.61
-3.97008e-05,0.63
-3.97000e-05,0.65
-3.96992e-05,0.63
-3.96984e-05,0.63
-3.96976e-05,0.63
-3.96968e-05,0.61
-3.96960e-05,0.61
-3.96952e-05,0.61
-3.96944e-05,0.61
-3.96936e-05,0.57
-3.96928e-05,0.63
-3.96920e-05,0.63
-3.96912e-05,0.63
-3.96904e-05,0.61
-3.96896e-05,0.63
-3.96888e-05,0.63
-3.96880e-05,0.59
-3.96872e-05,0.61
-3.96864e-05,0.61
-3.96856e-05,0.63
-3.96848e-05,0.61
-3.96840e-05,0.63
-3.96832e-05,0.59
-3.96824e-05,0.63
-3.96816e-05,0.65
-3.96808e-05,0.63
-3.96800e-05,0.61
-3.96792e-05,0.63
-3.96784e-05,0.63
-3.96776e-05,0.63
-3.96768e-05,0.63
-3.96760e-05,0.65
-3.96752e-05,0.63
-3.96744e-05,0.63
-3.96736e-05,0.63
-3.96728e-05,0.63
-3.96720e-05,0.63
-3.96712e-05,0.63
-3.96704e-05,0.63
-3.96696e-05,0.61
-3.96688e-05,0.63
-3.96680e-05,0.63
-3.96672e-05,0.61
-3.96664e-05,0.63
-3.96656e-05,0.63
-3.96648e-05,0.63
-3.96640e-05,0.61
-3.96632e-05,0.63
-3.96624e-05,0.65
-3.96616e-05,0.65
-3.96608e-05,0.63
-3.96600e-05,0.63
-3.96592e-05,0.61
-3.96584e-05,0.61
-3.96576e-05,0.61
-3.96568e-05,0.61
-3.96560e-05,0.67
-3.96552e-05,0.61
-3.96544e-05,0.63
-3.96536e-05,0.61
-3.96528e-05,0.63
-3.96520e-05,0.63
-3.96512e-05,0.63
-3.96504e-05,0.63
-3.96496e-05,0.63
-3.96488e-05,0.63
-3.96480e-05,0.63
-3.96472e-05,0.63
-3.96464e-05,0.61
-3.96456e-05,0.65
-3.96448e-05,0.65
-3.96440e-05,0.67
-3.96432e-05,0.63
-3.96424e-05,0.63
-3.96416e-05,0.63
-3.96408e-05,0.61
-3.96400e-05,0.63
-3.96392e-05,0.65
-3.96384e-05,0.65
-3.96376e-05,0.63
-3.96368e-05,0.63
-3.96360e-05,0.63
-3.96352e-05,0.65
-3.96344e-05,0.65
-3.96336e-05,0.63
-3.96328e-05,0.65
-3.96320e-05,0.63
-3.96312e-05,0.63
-3.96304e-05,0.63
-3.96296e-05,0.65
-3.96288e-05,0.65
-3.96280e-05,0.63
-3.96272e-05,0.59
-3.96264e-05,0.67
-3.96256e-05,0.63
-3.96248e-05,0.63
-3.96240e-05,0.61
-3.96232e-05,0.65
-3.96224e-05,0.63
-3.96216e-05,0.63
-3.96208e-05,0.65
-3.96200e-05,0.65
-3.96192e-05,0.63
-3.96184e-05,0.65
-3.96176e-05,0.63
-3.96168e-05,0.63
-3.96160e-05,0.63
-3.96152e-05,0.65
-3.96144e-05,0.63
-3.96136e-05,0.67
-3.96128e-05,0.63
-3.96120e-05,0.65
-3.96112e-05,0.63
-3.96104e-05,0.63
-3.96096e-05,0.61
-3.96088e-05,0.65
-3.96080e-05,0.67
-3.96072e-05,0.63
-3.96064e-05,0.65
-3.96056e-05,0.63
-3.96048e-05,0.65
-3.96040e-05,0.63
-3.96032e-05,0.63
-3.96024e-05,0.63
-3.96016e-05,0.61
-3.96008e-05,0.61
-3.96000e-05,0.61
-3.95992e-05,0.65
-3.95984e-05,0.63
-3.95976e-05,0.65
-3.95968e-05,0.63
-3.95960e-05,0.65
-3.95952e-05,0.65
-3.95944e-05,0.65
-3.95936e-05,0.63
-3.95928e-05,0.63
-3.95920e-05,0.63
-3.95912e-05,0.63
-3.95904e-05,0.63
-3.95896e-05,0.63
-3.95888e-05,0.65
-3.95880e-05,0.65
-3.95872e-05,0.63
-3.95864e-05,0.67
-3.95856e-05,0.65
-3.95848e-05,0.65
-3.95840e-05,0.67
-3.95832e-05,0.63
-3.95824e-05,0.63
-3.95816e-05,0.65
-3.95808e-05,0.65
-3.95800e-05,0.67
-3.95792e-05,0.63
-3.95784e-05,0.63
-3.95776e-05,0.63
-3.95768e-05,0.65
-3.95760e-05,0.63
-3.95752e-05,0.63
-3.95744e-05,0.65
-3.95736e-05,0.63
-3.95728e-05,0.63
-3.95720e-05,0.63
-3.95712e-05,0.65
-3.95704e-05,0.63
-3.95696e-05,0.65
-3.95688e-05,0.63
-3.95680e-05,0.63
-3.95672e-05,0.63
-3.95664e-05,0.65
-3.95656e-05,0.65
-3.95648e-05,0.65
-3.95640e-05,0.65
-3.95632e-05,0.63
-3.95624e-05,0.67
-3.95616e-05,0.63
-3.95608e-05,0.65
-3.95600e-05,0.65
-3.95592e-05,0.65
-3.95584e-05,0.69
-3.95576e-05,0.63
-3.95568e-05,0.63
-3.95560e-05,0.65
-3.95552e-05,0.67
-3.95544e-05,0.65
-3.95536e-05,0.65
-3.95528e-05,0.63
-3.95520e-05,0.65
-3.95512e-05,0.65
-3.95504e-05,0.67
-3.95496e-05,0.67
-3.95488e-05,0.65
-3.95480e-05,0.67
-3.95472e-05,0.65
-3.95464e-05,0.69
-3.95456e-05,0.65
-3.95448e-05,0.67
-3.95440e-05,0.65
-3.95432e-05,0.65
-3.95424e-05,0.63
-3.95416e-05,0.65
-3.95408e-05,0.63
-3.95400e-05,0.63
-3.95392e-05,0.63
-3.95384e-05,0.67
-3.95376e-05,0.63
-3.95368e-05,0.65
-3.95360e-05,0.67
-3.95352e-05,0.67
-3.95344e-05,0.65
-3.95336e-05,0.67
-3.95328e-05,0.65
-3.95320e-05,0.65
-3.95312e-05,0.67
-3.95304e-05,0.63
-3.95296e-05,0.67
-3.95288e-05,0.67
-3.95280e-05,0.67
-3.95272e-05,0.65
-3.95264e-05,0.67
-3.95256e-05,0.65
-3.95248e-05,0.65
-3.95240e-05,0.67
-3.95232e-05,0.63
-3.95224e-05,0.65
-3.95216e-05,0.63
-3.95208e-05,0.63
-3.95200e-05,0.69
-3.95192e-05,0.67
-3.95184e-05,0.67
-3.95176e-05,0.65
-3.95168e-05,0.67
-3.95160e-05,0.69
-3.95152e-05,0.67
-3.95144e-05,0.65
-3.95136e-05,0.65
-3.95128e-05,0.67
-3.95120e-05,0.63
-3.95112e-05,0.65
-3.95104e-05,0.67
-3.95096e-05,0.65
-3.95088e-05,0.65
-3.95080e-05,0.67
-3.95072e-05,0.67
-3.95064e-05,0.67
-3.95056e-05,0.65
-3.95048e-05,0.65
-3.95040e-05,0.67
-3.95032e-05,0.63
-3.95024e-05,0.65
-3.95016e-05,0.67
-3.95008e-05,0.63
-3.95000e-05,0.65
-3.94992e-05,0.63
-3.94984e-05,0.65
-3.94976e-05,0.67
-3.94968e-05,0.63
-3.94960e-05,0.65
-3.94952e-05,0.67
-3.94944e-05,0.67
-3.94936e-05,0.69
-3.94928e-05,0.65
-3.94920e-05,0.67
-3.94912e-05,0.67
-3.94904e-05,0.67
-3.94896e-05,0.65
-3.94888e-05,0.65
-3.94880e-05,0.67
-3.94872e-05,0.67
-3.94864e-05,0.65
-3.94856e-05,0.67
-3.94848e-05,0.67
-3.94840e-05,0.67
-3.94832e-05,0.69
-3.94824e-05,0.65
-3.94816e-05,0.67
-3.94808e-05,0.65
-3.94800e-05,0.65
-3.94792e-05,0.67
-3.94784e-05,0.67
-3.94776e-05,0.67
-3.94768e-05,0.69
-3.94760e-05,0.67
-3.94752e-05,0.67
-3.94744e-05,0.65
-3.94736e-05,0.67
-3.94728e-05,0.63
-3.94720e-05,0.67
-3.94712e-05,0.69
-3.94704e-05,0.67
-3.94696e-05,0.69
-3.94688e-05,0.69
-3.94680e-05,0.67
-3.94672e-05,0.65
-3.94664e-05,0.67
-3.94656e-05,0.69
-3.94648e-05,0.65
-3.94640e-05,0.65
-3.94632e-05,0.65
-3.94624e-05,0.65
-3.94616e-05,0.67
-3.94608e-05,0.67
-3.94600e-05,0.69
-3.94592e-05,0.69
-3.94584e-05,0.67
-3.94576e-05,0.67
-3.94568e-05,0.67
-3.94560e-05,0.69
-3.94552e-05,0.63
-3.94544e-05,0.69
-3.94536e-05,0.65
-3.94528e-05,0.67
-3.94520e-05,0.67
-3.94512e-05,0.69
-3.94504e-05,0.65
-3.94496e-05,0.69
-3.94488e-05,0.67
-3.94480e-05,0.67
-3.94472e-05,0.65
-3.94464e-05,0.67
-3.94456e-05,0.65
-3.94448e-05,0.65
-3.94440e-05,0.65
-3.94432e-05,0.67
-3.94424e-05,0.69
-3.94416e-05,0.69
-3.94408e-05,0.67
-3.94400e-05,0.71
-3.94392e-05,0.67
-3.94384e-05,0.69
-3.94376e-05,0.67
-3.94368e-05,0.67
-3.94360e-05,0.65
-3.94352e-05,0.67
-3.94344e-05,0.71
-3.94336e-05,0.69
-3.94328e-05,0.67
-3.94320e-05,0.69
-3.94312e-05,0.69
-3.94304e-05,0.67
-3.94296e-05,0.67
-3.94288e-05,0.67
-3.94280e-05,0.69
-3.94272e-05,0.67
-3.94264e-05,0.69
-3.94256e-05,0.69
-3.94248e-05,0.69
-3.94240e-05,0.69
-3.94232e-05,0.69
-3.94224e-05,0.67
-3.94216e-05,0.69
-3.94208e-05,0.67
-3.94200e-05,0.69
-3.94192e-05,0.67
-3.94184e-05,0.69
-3.94176e-05,0.67
-3.94168e-05,0.67
-3.94160e-05,0.67
-3.94152e-05,0.67
-3.94144e-05,0.69
-3.94136e-05,0.71
-3.94128e-05,0.69
-3.94120e-05,0.69
-3.94112e-05,0.65
-3.94104e-05,0.69
-3.94096e-05,0.67
-3.94088e-05,0.67
-3.94080e-05,0.69
-3.94072e-05,0.69
-3.94064e-05,0.67
-3.94056e-05,0.69
-3.94048e-05,0.67
-3.94040e-05,0.69
-3.94032e-05,0.65
-3.94024e-05,0.69
-3.94016e-05,0.69
-3.94008e-05,0.69
-3.94000e-05,0.65
-3.93992e-05,0.65
-3.93984e-05,0.69
-3.93976e-05,0.67
-3.93968e-05,0.65
-3.93960e-05,0.71
-3.93952e-05,0.67
-3.93944e-05,0.67
-3.93936e-05,0.65
-3.93928e-05,0.69
-3.93920e-05,0.69
-3.93912e-05,0.69
-3.93904e-05,0.71
-3.93896e-05,0.69
-3.93888e-05,0.69
-3.93880e-05,0.67
-3.93872e-05,0.67
-3.93864e-05,0.69
-3.93856e-05,0.65
-3.93848e-05,0.69
-3.93840e-05,0.67
-3.93832e-05,0.69
-3.93824e-05,0.69
-3.93816e-05,0.69
-3.93808e-05,0.69
-3.93800e-05,0.67
-3.93792e-05,0.71
-3.93784e-05,0.67
-3.93776e-05,0.67
-3.93768e-05,0.69
-3.93760e-05,0.69
-3.93752e-05,0.67
-3.93744e-05,0.69
-3.93736e-05,0.71
-3.93728e-05,0.71
-3.93720e-05,0.69
-3.93712e-05,0.69
-3.93704e-05,0.67
-3.93696e-05,0.71
-3.93688e-05,0.69
-3.93680e-05,0.73
-3.93672e-05,0.71
-3.93664e-05,0.69
-3.93656e-05,0.71
-3.93648e-05,0.69
-3.93640e-05,0.69
-3.93632e-05,0.71
-3.93624e-05,0.69
-3.93616e-05,0.69
-3.93608e-05,0.65
-3.93600e-05,0.67
-3.93592e-05,0.69
-3.93584e-05,0.71
-3.93576e-05,0.67
-3.93568e-05,0.67
-3.93560e-05,0.71
-3.93552e-05,0.67
-3.93544e-05,0.71
-3.93536e-05,0.69
-3.93528e-05,0.71
-3.93520e-05,0.69
-3.93512e-05,0.69
-3.93504e-05,0.69
-3.93496e-05,0.71
-3.93488e-05,0.69
-3.93480e-05,0.69
-3.93472e-05,0.69
-3.93464e-05,0.69
-3.93456e-05,0.69
-3.93448e-05,0.69
-3.93440e-05,0.69
-3.93432e-05,0.69
-3.93424e-05,0.69
-3.93416e-05,0.69
-3.93408e-05,0.71
-3.93400e-05,0.67
-3.93392e-05,0.69
-3.93384e-05,0.69
-3.93376e-05,0.69
-3.93368e-05,0.69
-3.93360e-05,0.69
-3.93352e-05,0.67
-3.93344e-05,0.69
-3.93336e-05,0.67
-3.93328e-05,0.69
-3.93320e-05,0.69
-3.93312e-05,0.71
-3.93304e-05,0.71
-3.93296e-05,0.69
-3.93288e-05,0.69
-3.93280e-05,0.69
-3.93272e-05,0.69
-3.93264e-05,0.71
-3.93256e-05,0.71
-3.93248e-05,0.69
-3.93240e-05,0.69
-3.93232e-05,0.71
-3.93224e-05,0.71
-3.93216e-05,0.69
-3.93208e-05,0.69
-3.93200e-05,0.71
-3.93192e-05,0.71
-3.93184e-05,0.69
-3.93176e-05,0.71
-3.93168e-05,0.71
-3.93160e-05,0.67
-3.93152e-05,0.73
-3.93144e-05,0.69
-3.93136e-05,0.69
-3.93128e-05,0.69
-3.93120e-05,0.69
-3.93112e-05,0.71
-3.93104e-05,0.69
-3.93096e-05,0.69
-3.93088e-05,0.69
-3.93080e-05,0.71
-3.93072e-05,0.69
-3.93064e-05,0.71
-3.93056e-05,0.73
-3.93048e-05,0.71
-3.93040e-05,0.71
-3.93032e-05,0.69
-3.93024e-05,0.67
-3.93016e-05,0.73
-3.93008e-05,0.69
-3.93000e-05,0.69
-3.92992e-05,0.69
-3.92984e-05,0.69
-3.92976e-05,0.71
-3.92968e-05,0.69
-3.92960e-05,0.69
-3.92952e-05,0.67
-3.92944e-05,0.71
-3.92936e-05,0.67
-3.92928e-05,0.69
-3.92920e-05,0.69
-3.92912e-05,0.71
-3.92904e-05,0.71
-3.92896e-05,0.69
-3.92888e-05,0.69
-3.92880e-05,0.73
-3.92872e-05,0.69
-3.92864e-05,0.69
-3.92856e-05,0.69
-3.92848e-05,0.75
-3.92840e-05,0.71
-3.92832e-05,0.71
-3.92824e-05,0.73
-3.92816e-05,0.67
-3.92808e-05,0.71
-3.92800e-05,0.69
-3.92792e-05,0.69
-3.92784e-05,0.71
-3.92776e-05,0.69
-3.92768e-05,0.73
-3.92760e-05,0.71
-3.92752e-05,0.71
-3.92744e-05,0.71
-3.92736e-05,0.69
-3.92728e-05,0.71
-3.92720e-05,0.69
-3.92712e-05,0.69
-3.92704e-05,0.71
-3.92696e-05,0.69
-3.92688e-05,0.73
-3.92680e-05,0.69
-3.92672e-05,0.71
-3.92664e-05,0.71
-3.92656e-05,0.69
-3.92648e-05,0.71
-3.92640e-05,0.71
-3.92632e-05,0.71
-3.92624e-05,0.69
-3.92616e-05,0.71
-3.92608e-05,0.71
-3.92600e-05,0.71
-3.92592e-05,0.73
-3.92584e-05,0.67
-3.92576e-05,0.69
-3.92568e-05,0.69
-3.92560e-05,0.69
-3.92552e-05,0.69
-3.92544e-05,0.69
-3.92536e-05,0.71
-3.92528e-05,0.69
-3.92520e-05,0.69
-3.92512e-05,0.71
-3.92504e-05,0.71
-3.92496e-05,0.73
-3.92488e-05,0.71
-3.92480e-05,0.69
-3.92472e-05,0.71
-3.92464e-05,0.73
-3.92456e-05,0.71
-3.92448e-05,0.71
-3.92440e-05,0.71
-3.92432e-05,0.69
-3.92424e-05,0.73
-3.92416e-05,0.69
-3.92408e-05,0.71
-3.92400e-05,0.73
-3.92392e-05,0.73
-3.92384e-05,0.71
-3.92376e-05,0.69
-3.92368e-05,0.69
-3.92360e-05,0.69
-3.92352e-05,0.71
-3.92344e-05,0.71
-3.92336e-05,0.73
-3.92328e-05,0.71
-3.92320e-05,0.71
-3.92312e-05,0.69
-3.92304e-05,0.69
-3.92296e-05,0.71
-3.92288e-05,0.71
-3.92280e-05,0.71
-3.92272e-05,0.71
-3.92264e-05,0.69
-3.92256e-05,0.69
-3.92248e-05,0.73
-3.92240e-05,0.73
-3.92232e-05,0.71
-3.92224e-05,0.69
-3.92216e-05,0.69
-3.92208e-05,0.73
-3.92200e-05,0.71
-3.92192e-05,0.71
-3.92184e-05,0.69
-3.92176e-05,0.73
-3.92168e-05,0.73
-3.92160e-05,0.71
-3.92152e-05,0.71
-3.92144e-05,0.73
-3.92136e-05,0.73
-3.92128e-05,0.71
-3.92120e-05,0.73
-3.92112e-05,0.71
-3.92104e-05,0.73
-3.92096e-05,0.73
-3.92088e-05,0.73
-3.92080e-05,0.73
-3.92072e-05,0.73
-3.92064e-05,0.69
-3.92056e-05,0.71
-3.92048e-05,0.69
-3.92040e-05,0.71
-3.92032e-05,0.71
-3.92024e-05,0.71
-3.92016e-05,0.69
-3.92008e-05,0.71
-3.92000e-05,0.73
-3.91992e-05,0.71
-3.91984e-05,0.71
-3.91976e-05,0.73
-3.91968e-05,0.73
-3.91960e-05,0.73
-3.91952e-05,0.71
-3.91944e-05,0.69
-3.91936e-05,0.73
-3.91928e-05,0.71
-3.91920e-05,0.69
-3.91912e-05,0.69
-3.91904e-05,0.71
-3.91896e-05,0.69
-3.91888e-05,0.73
-3.91880e-05,0.77
-3.91872e-05,0.71
-3.91864e-05,0.71
-3.91856e-05,0.75
-3.91848e-05,0.73
-3.91840e-05,0.73
-3.91832e-05,0.73
-3.91824e-05,0.69
-3.91816e-05,0.73
-3.91808e-05,0.71
-3.91800e-05,0.73
-3.91792e-05,0.71
-3.91784e-05,0.73
-3.91776e-05,0.71
-3.91768e-05,0.69
-3.91760e-05,0.73
-3.91752e-05,0.73
-3.91744e-05,0.71
-3.91736e-05,0.73
-3.91728e-05,0.75
-3.91720e-05,0.71
-3.91712e-05,0.69
-3.91704e-05,0.73
-3.91696e-05,0.75
-3.91688e-05,0.71
-3.91680e-05,0.71
-3.91672e-05,0.71
-3.91664e-05,0.75
-3.91656e-05,0.73
-3.91648e-05,0.73
-3.91640e-05,0.75
-3.91632e-05,0.75
-3.91624e-05,0.71
-3.91616e-05,0.71
-3.91608e-05,0.73
-3.91600e-05,0.69
-3.91592e-05,0.73
-3.91584e-05,0.71
-3.91576e-05,0.71
-3.91568e-05,0.75
-3.91560e-05,0.73
-3.91552e-05,0.71
-3.91544e-05,0.73
-3.91536e-05,0.71
-3.91528e-05,0.73
-3.91520e-05,0.73
-3.91512e-05,0.73
-3.91504e-05,0.71
-3.91496e-05,0.73
-3.91488e-05,0.71
-3.91480e-05,0.71
-3.91472e-05,0.73
-3.91464e-05,0.71
-3.91456e-05,0.69
-3.91448e-05,0.73
-3.91440e-05,0.73
-3.91432e-05,0.73
-3.91424e-05,0.75
-3.91416e-05,0.73
-3.91408e-05,0.73
-3.91400e-05,0.75
-3.91392e-05,0.73
-3.91384e-05,0.73
-3.91376e-05,0.71
-3.91368e-05,0.71
-3.91360e-05,0.73
-3.91352e-05,0.73
-3.91344e-05,0.73
-3.91336e-05,0.73
-3.91328e-05,0.73
-3.91320e-05,0.73
-3.91312e-05,0.75
-3.91304e-05,0.73
-3.91296e-05,0.71
-3.91288e-05,0.73
-3.91280e-05,0.75
-3.91272e-05,0.75
-3.91264e-05,0.73
-3.91256e-05,0.73
-3.91248e-05,0.73
-3.91240e-05,0.75
-3.91232e-05,0.73
